Introduction to tidyCoverage • tidyCoverage
…
strand: features strand from the
CoverageExperiment;

coord: exact genomic position from the
CoverageExperiment;

coverage: coverage score extracted from corresponding
track at chr:coord;

coord.scaled: 0-centered genomic position;

expand(CE)
#> # A tibble: 5,355,000 × 8
#> # Groups:   track, features, ranges [1,785]
#>    track features chr   ranges         strand coord coverage coord.scaled
#>    <chr> <chr>    <chr> <chr>          <chr>  <dbl>    <dbl>        <dbl>
#>  1 track features II    II:4290-7289:+ +       4290        0        -1500
#>  2 track features II    II:4290-7289:+ +       4291        0        -1499
#>  3 track features II    II:4290-7289:+ +       4292        0        -1498
#>  4 track features II    II:4290-7289:+ +       4293        0        -1497
#>  5 track features II    II:4290-7289:+ +       4294        0        -1496
#>  6 track features II    II:4290-7289:+ +       4295        0        -1495
#>  7 track features II    II:4290-7289:+ +       4296        0        -1494
#>  8 track features II    II:4290-7289:+ +       4297        0        -1493
#>  9 track features II    II:4290-7289:+ +       4298        0        -1492
#> 10 track features II    II:4290-7289:+ +       4299        0        -1491
#> # ℹ 5,354,990 more rows

Note that if the CoverageExperiment object has been
coarsened using window = ..., the coord and
coord.scaled are handled correspondingly.

expand(CE3)
#> # A tibble: 267,750 × 8
#> # Groups:   track, features, ranges [1,785]
#>    track features chr   ranges         strand coord coverage coord.scaled
#>    <chr> <chr>    <chr> <chr>          <chr>  <dbl>    <dbl>        <dbl>
#>  1 track features II    II:4290-7289:+ +       4290        0        -1500
#>  2 track features II    II:4290-7289:+ +       4310        0        -1480
#>  3 track features II    II:4290-7289:+ +       4330        0        -1460
#>  4 track features II    II:4290-7289:+ +       4350        0        -1440
#>  5 track features II    II:4290-7289:+ +       4370        0        -1420
#>  6 track features II    II:4290-7289:+ +       4390        0        -1400
#>  7 track features II    II:4290-7289:+ +       4410        0        -1380
#>  8 track features II    II:4290-7289:+ +       4430        0        -1360
#>  9 track features II    II:4290-7289:+ +       4450        0        -1340
#> 10 track features II    II:4290-7289:+ +       4470        0        -1320
#> # ℹ 267,740 more rows
…
assay(AC20, 'mean')[1, 1][[1]] |> length()
#> [1] 150

The resulting AggregatedCoverage objects can be readily
coerced into a tibble.

as_tibble(AC20)
#> # A tibble: 150 × 13
#>    .sample .feature track features coord  mean median   min   max    sd     se
#>    <chr>   <chr>    <chr> <chr>    <dbl> <dbl>  <dbl> <dbl> <dbl> <dbl>  <dbl>
#>  1 track   features track features -1500  2.99   2.89     0  9.51  1.75 0.0415
#>  2 track   features track features -1480  3.01   2.92     0  9.56  1.76 0.0416
#>  3 track   features track features -1460  3.07   2.96     0 10.4   1.79 0.0425
#>  4 track   features track features -1440  3.13   3.00     0 10.4   1.81 0.0428
#>  5 track   features track features -1420  3.13   2.99     0 10.4   1.81 0.0428
#>  6 track   features track features -1400  3.12   2.98     0 10.1   1.81 0.0428
#>  7 track   features track features -1380  3.06   2.95     0  9.54  1.79 0.0424
#>  8 track   features track features -1360  3.01   2.93     0 10.2   1.79 0.0423
#>  9 track   features track features -1340  3.06   2.98     0 10.6   1.80 0.0426
#> 10 track   features track features -1320  3.03   2.95     0 10.6   1.80 0.0426
#> # ℹ 140 more rows
#> # ℹ 2 more variables: ci_low <dbl>, ci_high <dbl>
Note that the coarsen-then-aggregate or
aggregate-by-bin are NOT equivalent. This
is due to the certain operations being not commutative with
mean (e.g. sd,
min/max, …).

# Coarsen `CoverageExperiment` with `window = ...` then per-bin `aggregate`:
CoverageExperiment(
    tracks = import(bw_file, as = "Rle"), features = import(bed_file),
    width = 3000
) |> 
    coarsen(window = 20) |> ## FIRST COARSEN...
    aggregate() |>          ## ... THEN AGGREGATE
    as_tibble()
#> # A tibble: 150 × 13
#>    .sample .feature track features coord  mean median   min   max    sd     se
#>    <chr>   <chr>    <chr> <chr>    <dbl> <dbl>  <dbl> <dbl> <dbl> <dbl>  <dbl>
#>  1 track   features track features -1500  2.99   2.95     0  9.01  1.65 0.0391
#>  2 track   features track features -1480  3.01   2.97     0  9.52  1.67 0.0396
#>  3 track   features track features -1460  3.07   3.00     0 10.4   1.70 0.0402
#>  4 track   features track features -1440  3.13   3.04     0 10.4   1.72 0.0407
#>  5 track   features track features -1420  3.13   3.01     0 10.4   1.72 0.0407
#>  6 track   features track features -1400  3.12   3.02     0  9.28  1.71 0.0405
#>  7 track   features track features -1380  3.06   3.01     0  9.23  1.70 0.0402
#>  8 track   features track features -1360  3.01   2.94     0  9.68  1.70 0.0401
#>  9 track   features track features -1340  3.06   3.01     0 10.6   1.71 0.0405
#> 10 track   features track features -1320  3.03   2.99     0 10.6   1.71 0.0404
#> # ℹ 140 more rows
#> # ℹ 2 more variables: ci_low <dbl>, ci_high <dbl>

# Per-base `CoverageExperiment` then `aggregate` with `bin = ...`: 
CoverageExperiment(
    tracks = import(bw_file, as = "Rle"), features = import(bed_file),
    width = 3000
) |> 
    aggregate(bin = 20) |>  ## DIRECTLY AGGREGATE BY BIN
    as_tibble()
#> # A tibble: 150 × 13
#>    .sample .feature track features coord  mean median   min   max    sd     se
#>    <chr>   <chr>    <chr> <chr>    <dbl> <dbl>  <dbl> <dbl> <dbl> <dbl>  <dbl>
#>  1 track   features track features -1500  2.99   2.89     0  9.51  1.75 0.0415
#>  2 track   features track features -1480  3.01   2.92     0  9.56  1.76 0.0416
#>  3 track   features track features -1460  3.07   2.96     0 10.4   1.79 0.0425
#>  4 track   features track features -1440  3.13   3.00     0 10.4   1.81 0.0428
#>  5 track   features track features -1420  3.13   2.99     0 10.4   1.81 0.0428
#>  6 track   features track features -1400  3.12   2.98     0 10.1   1.81 0.0428
#>  7 track   features track features -1380  3.06   2.95     0  9.54  1.79 0.0424
#>  8 track   features track features -1360  3.01   2.93     0 10.2   1.79 0.0423
#>  9 track   features track features -1340  3.06   2.98     0 10.6   1.80 0.0426
#> 10 track   features track features -1320  3.03   2.95     0 10.6   1.80 0.0426
#> # ℹ 140 more rows
#> # ℹ 2 more variables: ci_low <dbl>, ci_high <dbl>
…
